<svg id="Logo" viewBox="0 0 64 64" fill="none" xmlns="http://www.w3.org/2000/svg">
    <path fill="var(--fill-bg)" d="M5.9125 0H58.0875C61.35 0 64 2.65 64 5.9125V58.0875C64 61.35 61.35 64 58.0875 64H5.9125C2.65 64 0 61.35 0 58.0875V5.9125C0 2.65 2.65 0 5.9125 0Z" />
    <path fill="var(--fill)" d="M53.5749 31.2625C53.5624 27.225 50.8249 23.8125 47.1124 22.775L53.2749 11.15C53.6999 10.35 53.6749 9.37502 53.1999 8.60002C52.7249 7.82502 51.8874 7.33752 50.9749 7.33752L19.2249 7.36252C14.3624 7.37502 10.3999 11.3375 10.4124 16.2V18.8625C10.4249 22.9 13.1624 26.3125 16.8749 27.35L10.7124 38.975C10.2874 39.775 10.3124 40.75 10.7874 41.525C11.2624 42.3 12.0999 42.7875 13.0124 42.7875L44.7624 42.7625C49.6249 42.75 53.5874 38.7875 53.5749 33.925V31.2625ZM15.6124 18.8625V16.2C15.6124 14.2 17.2374 12.5625 19.2374 12.5625L46.6749 12.5375L41.4124 22.4625L19.2499 22.4875C17.2499 22.4875 15.6124 20.8625 15.6124 18.8625ZM44.7624 37.575L17.3249 37.6L22.5874 27.675L41.9874 27.6375H42.9749H44.7374H44.7499C45.7249 27.6375 46.6249 28.0125 47.3124 28.7C47.9999 29.3875 48.3749 30.3 48.3874 31.275V33.9375C48.3999 35.9375 46.7624 37.575 44.7624 37.575Z" />
    <path fill="var(--fill)" d="M19.275 56.2H13.175C12.6875 56.2 12.3 55.8125 12.3 55.325V49.225C12.3 48.7375 12.6875 48.35 13.175 48.35H19.275C19.7625 48.35 20.15 48.7375 20.15 49.225V55.325C20.1375 55.8125 19.75 56.2 19.275 56.2Z" />
    <path fill="var(--fill)" d="M34.975 56.2H28.875C28.3875 56.2 28 55.8125 28 55.325V49.225C28 48.7375 28.3875 48.35 28.875 48.35H34.975C35.4625 48.35 35.85 48.7375 35.85 49.225V55.325C35.85 55.8125 35.45 56.2 34.975 56.2Z"/>
    <path fill="var(--fill)" d="M50.6749 56.2H44.575C44.0875 56.2 43.7 55.8125 43.7 55.325V49.225C43.7 48.7375 44.0875 48.35 44.575 48.35H50.6749C51.1624 48.35 51.5499 48.7375 51.5499 49.225V55.325C51.5499 55.8125 51.1499 56.2 50.6749 56.2Z" />
</svg>
    