<svg id="chTropheyIcon" viewBox="0 0 42 42" fill="none" xmlns="http://www.w3.org/2000/svg">
<path d="M39.9 2.1H33.6V0H8.4V2.1H2.1C0.84 2.1 0 2.94 0 4.2V9.24C0 14.07 3.57 18.06 8.4 18.69V18.9C8.4 24.99 12.6 30.03 18.27 31.29L16.8 35.7H11.97C11.13 35.7 10.29 36.33 10.08 37.17L8.4 42H33.6L31.92 37.17C31.71 36.33 30.87 35.7 30.03 35.7H25.2L23.73 31.29C29.4 30.03 33.6 24.99 33.6 18.9V18.69C38.43 18.06 42 14.07 42 9.24V4.2C42 2.94 41.16 2.1 39.9 2.1ZM8.4 14.49C6.09 13.86 4.2 11.76 4.2 9.24V6.3H8.4V14.49ZM25.2 21L21 18.69L16.8 21L17.85 16.8L14.7 12.6H19.11L21 8.4L22.89 12.6H27.3L24.15 16.8L25.2 21ZM37.8 9.24C37.8 11.76 35.91 14.07 33.6 14.49V6.3H37.8V9.24Z" fill="#CC4448"/>
</svg>
