<svg viewBox="0 0 212 64" fill="none" xmlns="http://www.w3.org/2000/svg">
    <path d="M192.51 48V63.5H0.5V0.5H192.51V16V16.2245L192.678 16.3737L210.252 32L192.678 47.6263L192.51 47.7755V48Z" fill="white" stroke="#D0D0D0" />
</svg>
    