<svg viewBox="0 0 213 64" fill="none" xmlns="http://www.w3.org/2000/svg">
    <path d="M18.6647 48V63.5H212.5V0.5H18.6647V16V16.2259L18.4952 16.3752L0.756454 32L18.4952 47.6248L18.6647 47.7741V48Z" fill="white" stroke="#D0D0D0" />
</svg>
    