<svg viewBox="0 0 213 64" fill="none" xmlns="http://www.w3.org/2000/svg">
    <path fill="#fff" stroke="#D0D0D0" d="M13.5 53.5V63.5H212.5V0.5H13.5V10.5V10.7389L13.3142 10.889L0.5 21.2389V32V42.7611L13.3142 53.111L13.5 53.2611V53.5Z"/>
</svg>
    