<svg width="16" height="14" viewBox="0 0 16 14" fill="none" xmlns="http://www.w3.org/2000/svg">
    <rect x="5.75" y="13.75" width="13.5" height="1.5" transform="rotate(-90 5.75 13.75)" fill="#ECA335" />
    <rect x="8.75" y="13.75" width="13.5" height="1.5" transform="rotate(-90 8.75 13.75)" fill="#ECA335" />
    <path d="M0.5 7L3.875 4.40192L3.875 9.59808L0.5 7Z" fill="#ECA335" />
    <path d="M15.5 7L12.125 9.59808V4.40192L15.5 7Z" fill="#ECA335" />
</svg>
    