<svg viewBox="0 0 16 13" fill="none" xmlns="http://www.w3.org/2000/svg">
    <path d="M3 13L2 3L5.6 6.7037L8 3L10.4 6.7037L14 3L12 13H3Z" fill="#B21B20" />
    <circle cx="14" cy="4" r="1.5" fill="#9747FF" stroke="#DA2127" />
    <circle cx="8" cy="2" r="1.5" fill="#9747FF" stroke="#DA2127" />
    <circle cx="2" cy="4" r="1.5" fill="#9747FF" stroke="#DA2127" />
</svg>
    