<svg width="14" height="14" viewBox="0 0 14 14" fill="none" xmlns="http://www.w3.org/2000/svg">
<path d="M5.48298 1.93136L5.78654 1.53885L5.48298 1.93136C5.91429 2.26493 6.47116 2.41434 7 2.41434C7.52884 2.41434 8.08571 2.26493 8.51702 1.93136L8.21361 1.53904L8.51702 1.93136C9.0454 1.52272 9.63483 1.32031 10.2812 1.32031C12.0876 1.32031 13.5 2.79148 13.5 4.8539C13.5 5.94223 13.07 6.87902 12.2404 7.88007C11.3981 8.89641 10.1831 9.93394 8.66203 11.2302L8.66202 11.2302L8.66133 11.2308C8.1603 11.6578 7.59183 12.1422 7.00002 12.6592C6.40854 12.1426 5.84031 11.6583 5.33974 11.2317L5.33831 11.2305L5.3383 11.2305C3.81704 9.93408 2.60199 8.89648 1.75968 7.8801C0.930039 6.87902 0.5 5.94223 0.5 4.8539C0.5 2.79148 1.91236 1.32031 3.71875 1.32031C4.36517 1.32031 4.9546 1.52272 5.48298 1.93136Z" stroke="#fff"/>
</svg>
